<?xml version="1.0" encoding="UTF-8" standalone="no"?>
<svg width="284px" height="70px" viewBox="0 0 284 70" version="1.1" xmlns="http://www.w3.org/2000/svg" xmlns:xlink="http://www.w3.org/1999/xlink">
    <!-- Generator: Sketch 43.2 (39069) - http://www.bohemiancoding.com/sketch -->
    <title>Edition_Logo_White</title>
    <desc>Created with Sketch.</desc>
    <defs>
        <polygon id="path-1" points="0.06 70 283.465 70 283.465 0.078 0.06 0.078"></polygon>
    </defs>
    <g id="Page-1" stroke="none" stroke-width="1" fill="none" fill-rule="evenodd">
        <g id="Edition_Logo_White">
            <mask id="mask-2" fill="white">
                <use xlink:href="#path-1"></use>
            </mask>
            <g id="Clip-2"></g>
            <path d="M0,68.505 L42.921,68.505 L42.921,57.247 L13.457,57.335 L13.457,40.184 L38.435,40.272 L38.435,29.63 L13.457,29.718 L13.545,13.183 L42.129,13.271 L42.129,2.101 L0,2.101 L0,68.505 Z M68.338,69.736 C76.342,69.736 80.739,65.866 82.85,62.612 L83.466,68.505 L95.164,68.505 L95.164,0.078 L82.059,0.078 L82.322,26.552 C80.476,24.001 76.342,19.691 68.602,19.691 C55.057,19.691 47.581,32.268 47.581,45.286 C47.581,60.765 56.025,69.736 68.338,69.736 L68.338,69.736 Z M71.944,60.413 C65.612,60.413 61.126,55.4 61.126,45.286 C61.126,35.171 65.612,29.894 71.944,29.894 C78.541,29.894 82.674,35.259 82.674,45.461 C82.674,55.488 78.541,60.413 71.944,60.413 L71.944,60.413 Z M105.717,68.505 L118.734,68.505 L118.734,20.923 L105.717,20.923 L105.717,68.505 Z M105.717,13.359 L118.822,13.359 L118.822,2.101 L105.717,2.101 L105.717,13.359 Z M124.801,30.158 L131.398,30.158 L131.31,55.136 C131.31,64.459 134.564,69.473 144.59,69.473 C150.66,69.473 154.794,68.241 154.794,68.241 L154.177,58.918 C154.177,58.918 152.507,59.006 150.307,59.006 C144.239,59.006 144.415,54.96 144.415,50.123 L144.415,30.158 L154.177,30.158 L154.177,20.923 L144.415,20.923 L144.415,8.082 L132.277,8.082 L131.574,20.923 L124.801,20.923 L124.801,30.158 Z M161.829,68.505 L174.845,68.505 L174.845,20.923 L161.829,20.923 L161.829,68.505 Z M161.829,13.359 L174.933,13.359 L174.933,2.101 L161.829,2.101 L161.829,13.359 Z M207.211,70 C223.482,70 231.309,58.654 231.309,45.022 C231.309,30.949 224.009,19.515 207.211,19.515 C190.851,19.515 182.848,31.389 182.848,45.022 C182.848,59.182 190.324,70 207.211,70 L207.211,70 Z M207.035,60.061 C200.702,60.061 196.129,54.96 196.129,44.846 C196.129,34.731 200.702,29.454 207.035,29.454 C213.632,29.454 217.941,34.907 217.941,44.933 C217.941,55.048 213.632,60.061 207.035,60.061 L207.035,60.061 Z M239.049,68.505 L252.154,68.505 L252.154,51.178 C252.154,42.735 252.242,40.008 253.209,37.018 C254.44,33.324 257.871,30.158 262.356,30.158 C269.216,30.158 270.184,35.699 270.184,42.119 L270.184,68.505 L283.465,68.505 L283.465,38.601 C283.465,27.431 278.275,19.78 266.314,19.78 C258.134,19.78 253.385,24.441 251.362,27.871 L250.835,20.923 L239.049,20.923 L239.049,68.505 L239.049,68.505 Z" id="Fill-1" fill="#FFFFFF" mask="url(#mask-2)"></path>
        </g>
    </g>
</svg>